####
#
# OBJ File Generated by Meshlab
#
####
# Object torus2.obj
#
# Vertices: 576
# Faces: 1152
#
####
vn 5.991685 0.000002 0.000003
v 1.250000 0.000000 0.000000
vn 5.214824 2.973936 0.000003
v 1.216506 0.125000 0.000000
vn 3.064690 5.196418 0.000000
v 1.125000 0.216506 0.000000
vn 0.065437 6.068214 -0.000000
v 1.000000 0.250000 0.000000
vn -2.999415 5.309919 0.000000
v 0.875000 0.216506 0.000000
vn -5.280260 3.087155 -0.000004
v 0.783494 0.125000 0.000000
vn -6.122236 0.000000 0.000000
v 0.750000 0.000000 0.000000
vn -5.280260 -3.087155 0.000004
v 0.783494 -0.125000 0.000000
vn -2.999415 -5.309919 -0.000000
v 0.875000 -0.216506 0.000000
vn 0.065437 -6.068214 0.000000
v 1.000000 -0.250000 0.000000
vn 3.064690 -5.196418 -0.000000
v 1.125000 -0.216506 0.000000
vn 5.214824 -2.973938 -0.000001
v 1.216506 -0.125000 0.000000
vn 5.940430 -0.000001 -0.782077
v 1.239306 0.000000 -0.163158
vn 5.170210 2.973926 -0.680667
v 1.206099 0.125000 -0.158786
vn 3.038473 5.196412 -0.400020
v 1.115376 0.216506 -0.146842
vn 0.064878 6.068214 -0.008541
v 0.991445 0.250000 -0.130526
vn -2.973757 5.309916 0.391502
v 0.867514 0.216506 -0.114210
vn -5.235086 3.087149 0.689219
v 0.776791 0.125000 -0.102266
vn -6.069865 -0.000003 0.799127
v 0.743584 0.000000 -0.097895
vn -5.235088 -3.087147 0.689209
v 0.776791 -0.125000 -0.102266
vn -2.973757 -5.309916 0.391503
v 0.867514 -0.216506 -0.114210
vn 0.064878 -6.068215 -0.008541
v 0.991445 -0.250000 -0.130526
vn 3.038473 -5.196413 -0.400019
v 1.115376 -0.216506 -0.146842
vn 5.170210 -2.973924 -0.680667
v 1.206099 -0.125000 -0.158786
vn 5.787534 0.000004 -1.550761
v 1.207407 0.000000 -0.323524
vn 5.037132 2.973920 -1.349700
v 1.175055 0.125000 -0.314855
vn 2.960262 5.196419 -0.793197
v 1.086667 0.216506 -0.291171
vn 0.063207 6.068214 -0.016937
v 0.965926 0.250000 -0.258819
vn -2.897213 5.309919 0.776299
v 0.845185 0.216506 -0.226467
vn -5.100339 3.087160 1.366621
v 0.756797 0.125000 -0.202783
vn -5.913620 0.000000 1.584546
v 0.724444 0.000000 -0.194114
vn -5.100335 -3.087162 1.366631
v 0.756797 -0.125000 -0.202783
vn -2.897215 -5.309918 0.776299
v 0.845185 -0.216506 -0.226467
vn 0.063208 -6.068214 -0.016937
v 0.965926 -0.250000 -0.258819
vn 2.960262 -5.196417 -0.793201
v 1.086667 -0.216506 -0.291171
vn 5.037130 -2.973925 -1.349696
v 1.175055 -0.125000 -0.314855
vn 5.535590 0.000006 -2.292911
v 1.154850 0.000000 -0.478354
vn 4.817870 2.973934 -1.995633
v 1.123905 0.125000 -0.465537
vn 2.831407 5.196410 -1.172810
v 1.039365 0.216506 -0.430519
vn 0.060457 6.068213 -0.025042
v 0.923880 0.250000 -0.382683
vn -2.771091 5.309927 1.147826
v 0.808395 0.216506 -0.334848
vn -4.878317 3.087151 2.020678
v 0.723854 0.125000 -0.299830
vn -5.656220 0.000006 2.342877
v 0.692910 0.000000 -0.287013
vn -4.878316 -3.087159 2.020673
v 0.723854 -0.125000 -0.299830
vn -2.771093 -5.309926 1.147828
v 0.808395 -0.216506 -0.334848
vn 0.060456 -6.068214 -0.025042
v 0.923880 -0.250000 -0.382683
vn 2.831411 -5.196407 -1.172807
v 1.039365 -0.216506 -0.430519
vn 4.817866 -2.973941 -1.995634
v 1.123905 -0.125000 -0.465537
vn 5.188948 0.000001 -2.995841
v 1.082532 0.000000 -0.625000
vn 4.516172 2.973939 -2.607414
v 1.053525 0.125000 -0.608253
vn 2.654101 5.196412 -1.532345
v 0.974279 0.216506 -0.562500
vn 0.056665 6.068215 -0.032715
v 0.866025 0.250000 -0.500000
vn -2.597566 5.309920 1.499714
v 0.757772 0.216506 -0.437500
vn -4.572830 3.087148 2.640137
v 0.678525 0.125000 -0.391747
vn -5.302009 -0.000001 3.061134
v 0.649519 0.000000 -0.375000
vn -4.572831 -3.087146 2.640139
v 0.678525 -0.125000 -0.391747
vn -2.597564 -5.309921 1.499714
v 0.757772 -0.216506 -0.437500
vn 0.056664 -6.068215 -0.032714
v 0.866025 -0.250000 -0.500000
vn 2.654102 -5.196411 -1.532347
v 0.974279 -0.216506 -0.562500
vn 4.516171 -2.973940 -2.607415
v 1.053525 -0.125000 -0.608253
vn 4.753518 -0.000004 -3.647502
v 0.991692 0.000000 -0.760952
vn 4.137201 2.973942 -3.174580
v 0.965119 0.125000 -0.740562
vn 2.431385 5.196405 -1.865673
v 0.892523 0.216506 -0.684857
vn 0.051909 6.068216 -0.039828
v 0.793353 0.250000 -0.608761
vn -2.379598 5.309917 1.825932
v 0.694184 0.216506 -0.532666
vn -4.189116 3.087155 3.214406
v 0.621587 0.125000 -0.476961
vn -4.857102 -0.000005 3.726981
v 0.595015 0.000000 -0.456571
vn -4.189120 -3.087145 3.214410
v 0.621587 -0.125000 -0.476961
vn -2.379593 -5.309921 1.825929
v 0.694184 -0.216506 -0.532666
vn 0.051906 -6.068215 -0.039832
v 0.793353 -0.250000 -0.608761
vn 2.431383 -5.196408 -1.865666
v 0.892523 -0.216506 -0.684857
vn 4.137205 -2.973935 -3.174582
v 0.965119 -0.125000 -0.740562
vn 4.236754 -0.000004 -4.236772
v 0.883883 0.000000 -0.883884
vn 3.687428 2.973934 -3.687432
v 0.860200 0.125000 -0.860200
vn 2.167060 5.196422 -2.167063
v 0.795495 0.216506 -0.795495
vn 0.046276 6.068215 -0.046280
v 0.707107 0.250000 -0.707107
vn -2.120910 5.309911 2.120912
v 0.618718 0.216506 -0.618718
vn -3.733710 3.087157 3.733711
v 0.554014 0.125000 -0.554014
vn -4.329074 0.000000 4.329073
v 0.530330 0.000000 -0.530330
vn -3.733711 -3.087158 3.733710
v 0.554014 -0.125000 -0.554014
vn -2.120912 -5.309911 2.120908
v 0.618718 -0.216506 -0.618718
vn 0.046281 -6.068213 -0.046277
v 0.707107 -0.250000 -0.707107
vn 2.167053 -5.196425 -2.167065
v 0.795495 -0.216506 -0.795495
vn 3.687429 -2.973927 -3.687435
v 0.860200 -0.125000 -0.860200
vn 3.647513 0.000004 -4.753530
v 0.760952 0.000000 -0.991691
vn 3.174578 2.973928 -4.137203
v 0.740562 0.125000 -0.965119
vn 1.865667 5.196421 -2.431378
v 0.684857 0.216506 -0.892522
vn 0.039838 6.068213 -0.051919
v 0.608762 0.250000 -0.793353
vn -1.825928 5.309922 2.379591
v 0.532666 0.216506 -0.694184
vn -3.214410 3.087145 4.189120
v 0.476961 0.125000 -0.621587
vn -3.726981 0.000005 4.857101
v 0.456571 0.000000 -0.595015
vn -3.214406 -3.087154 4.189116
v 0.476961 -0.125000 -0.621587
vn -1.825929 -5.309918 2.379597
v 0.532666 -0.216506 -0.694184
vn 0.039839 -6.068213 -0.051918
v 0.608762 -0.250000 -0.793353
vn 1.865670 -5.196416 -2.431382
v 0.684857 -0.216506 -0.892522
vn 3.174578 -2.973935 -4.137197
v 0.740562 -0.125000 -0.965119
vn 2.995843 0.000001 -5.188942
v 0.625000 0.000000 -1.082532
vn 2.607415 2.973938 -4.516169
v 0.608253 0.125000 -1.053525
vn 1.532344 5.196408 -2.654105
v 0.562500 0.216506 -0.974279
vn 0.032718 6.068215 -0.056665
v 0.500000 0.250000 -0.866025
vn -1.499706 5.309922 2.597569
v 0.437500 0.216506 -0.757772
vn -2.640138 3.087146 4.572831
v 0.391747 0.125000 -0.678525
vn -3.061134 0.000002 5.302009
v 0.375000 0.000000 -0.649519
vn -2.640135 -3.087146 4.572834
v 0.391747 -0.125000 -0.678525
vn -1.499703 -5.309923 2.597568
v 0.437500 -0.216506 -0.757772
vn 0.032714 -6.068214 -0.056667
v 0.500000 -0.250000 -0.866025
vn 1.532348 -5.196409 -2.654103
v 0.562500 -0.216506 -0.974279
vn 2.607414 -2.973939 -4.516170
v 0.608253 -0.125000 -1.053525
vn 2.292919 -0.000005 -5.535596
v 0.478355 0.000000 -1.154849
vn 1.995627 2.973943 -4.817859
v 0.465537 0.125000 -1.123905
vn 1.172801 5.196419 -2.831406
v 0.430519 0.216506 -1.039364
vn 0.025041 6.068214 -0.060457
v 0.382684 0.250000 -0.923879
vn -1.147830 5.309911 2.771104
v 0.334848 0.216506 -0.808394
vn -2.020671 3.087150 4.878325
v 0.299830 0.125000 -0.723854
vn -2.342876 -0.000006 5.656220
v 0.287013 0.000000 -0.692910
vn -2.020685 -3.087142 4.878324
v 0.299830 -0.125000 -0.723854
vn -1.147834 -5.309913 2.771100
v 0.334848 -0.216506 -0.808394
vn 0.025043 -6.068213 -0.060459
v 0.382684 -0.250000 -0.923879
vn 1.172798 -5.196425 -2.831401
v 0.430519 -0.216506 -1.039364
vn 1.995628 -2.973934 -4.817864
v 0.465537 -0.125000 -1.123905
vn 1.550768 -0.000001 -5.787530
v 0.323524 0.000000 -1.207407
vn 1.349700 2.973931 -5.037121
v 0.314855 0.125000 -1.175055
vn 0.793208 5.196431 -2.960252
v 0.291171 0.216506 -1.086666
vn 0.016938 6.068213 -0.063215
v 0.258819 0.250000 -0.965926
vn -0.776309 5.309921 2.897209
v 0.226467 0.216506 -0.845185
vn -1.366636 3.087159 5.100337
v 0.202783 0.125000 -0.756797
vn -1.584546 0.000000 5.913620
v 0.194114 0.000000 -0.724444
vn -1.366621 -3.087160 5.100339
v 0.202783 -0.125000 -0.756797
vn -0.776308 -5.309920 2.897211
v 0.226467 -0.216506 -0.845185
vn 0.016940 -6.068213 -0.063214
v 0.258819 -0.250000 -0.965926
vn 0.793203 -5.196430 -2.960255
v 0.291171 -0.216506 -1.086666
vn 1.349697 -2.973931 -5.037120
v 0.314855 -0.125000 -1.175055
vn 0.782074 0.000004 -5.940430
v 0.163158 0.000000 -1.239306
vn 0.680664 2.973922 -5.170211
v 0.158786 0.125000 -1.206099
vn 0.400024 5.196412 -3.038471
v 0.146842 0.216506 -1.115376
vn 0.008543 6.068214 -0.064879
v 0.130526 0.250000 -0.991445
vn -0.391503 5.309916 2.973757
v 0.114210 0.216506 -0.867514
vn -0.689209 3.087147 5.235088
v 0.102266 0.125000 -0.776791
vn -0.799127 0.000003 6.069865
v 0.097895 0.000000 -0.743584
vn -0.689219 -3.087149 5.235085
v 0.102266 -0.125000 -0.776791
vn -0.391502 -5.309916 2.973757
v 0.114210 -0.216506 -0.867514
vn 0.008541 -6.068214 -0.064878
v 0.130526 -0.250000 -0.991445
vn 0.400029 -5.196409 -3.038475
v 0.146842 -0.216506 -1.115376
vn 0.680670 -2.973928 -5.170207
v 0.158786 -0.125000 -1.206099
vn -0.000000 0.000000 -5.991685
v 0.000000 0.000000 -1.250000
vn -0.000000 2.973938 -5.214821
v 0.000000 0.125000 -1.216506
vn -0.000009 5.196415 -3.064693
v 0.000000 0.216506 -1.125000
vn -0.000000 6.068214 -0.065437
v 0.000000 0.250000 -1.000000
vn -0.000001 5.309918 2.999415
v 0.000000 0.216506 -0.875000
vn -0.000005 3.087155 5.280259
v 0.000000 0.125000 -0.783494
vn -0.000000 -0.000000 6.122235
v 0.000000 0.000000 -0.750000
vn 0.000002 -3.087155 5.280260
v 0.000000 -0.125000 -0.783494
vn -0.000001 -5.309919 2.999416
v 0.000000 -0.216506 -0.875000
vn -0.000002 -6.068213 -0.065438
v 0.000000 -0.250000 -1.000000
vn -0.000006 -5.196418 -3.064689
v 0.000000 -0.216506 -1.125000
vn -0.000003 -2.973935 -5.214824
v 0.000000 -0.125000 -1.216506
vn -0.782074 -0.000003 -5.940430
v -0.163158 0.000000 -1.239306
vn -0.680662 2.973934 -5.170202
v -0.158786 0.125000 -1.206099
vn -0.400016 5.196426 -3.038466
v -0.146842 0.216506 -1.115375
vn -0.008543 6.068213 -0.064882
v -0.130526 0.250000 -0.991445
vn 0.391504 5.309916 2.973757
v -0.114211 0.216506 -0.867514
vn 0.689222 3.087152 5.235086
v -0.102267 0.125000 -0.776791
vn 0.799126 -0.000002 6.069865
v -0.097895 0.000000 -0.743584
vn 0.689213 -3.087150 5.235087
v -0.102267 -0.125000 -0.776791
vn 0.391504 -5.309916 2.973757
v -0.114211 -0.216506 -0.867514
vn -0.008540 -6.068213 -0.064882
v -0.130526 -0.250000 -0.991445
vn -0.400021 -5.196427 -3.038465
v -0.146842 -0.216506 -1.115375
vn -0.680667 -2.973930 -5.170202
v -0.158786 -0.125000 -1.206099
vn -1.550772 -0.000000 -5.787528
v -0.323524 0.000000 -1.207407
vn -1.349703 2.973923 -5.037128
v -0.314855 0.125000 -1.175055
vn -0.793201 5.196415 -2.960263
v -0.291171 0.216506 -1.086667
vn -0.016935 6.068214 -0.063208
v -0.258819 0.250000 -0.965926
vn 0.776302 5.309919 2.897213
v -0.226467 0.216506 -0.845185
vn 1.366626 3.087159 5.100338
v -0.202783 0.125000 -0.756797
vn 1.584547 0.000001 5.913620
v -0.194114 0.000000 -0.724444
vn 1.366635 -3.087162 5.100333
v -0.202783 -0.125000 -0.756797
vn 0.776301 -5.309917 2.897215
v -0.226467 -0.216506 -0.845185
vn -0.016939 -6.068214 -0.063208
v -0.258819 -0.250000 -0.965926
vn -0.793199 -5.196414 -2.960264
v -0.291171 -0.216506 -1.086667
vn -1.349697 -2.973923 -5.037128
v -0.314855 -0.125000 -1.175055
vn -2.292918 0.000005 -5.535605
v -0.478354 0.000000 -1.154849
vn -1.995631 2.973927 -4.817865
v -0.465537 0.125000 -1.123905
vn -1.172805 5.196424 -2.831405
v -0.430519 0.216506 -1.039364
vn -0.025046 6.068213 -0.060465
v -0.382684 0.250000 -0.923880
vn 1.147825 5.309927 2.771090
v -0.334848 0.216506 -0.808395
vn 2.020678 3.087151 4.878317
v -0.299830 0.125000 -0.723854
vn 2.342877 0.000006 5.656220
v -0.287013 0.000000 -0.692910
vn 2.020673 -3.087158 4.878316
v -0.299830 -0.125000 -0.723854
vn 1.147826 -5.309926 2.771090
v -0.334848 -0.216506 -0.808395
vn -0.025044 -6.068213 -0.060466
v -0.382684 -0.250000 -0.923880
vn -1.172808 -5.196421 -2.831404
v -0.430519 -0.216506 -1.039364
vn -1.995631 -2.973934 -4.817862
v -0.465537 -0.125000 -1.123905
vn -2.995830 0.000005 -5.188951
v -0.625000 0.000000 -1.082532
vn -2.607412 2.973937 -4.516171
v -0.608253 0.125000 -1.053525
vn -1.532351 5.196408 -2.654104
v -0.562500 0.216506 -0.974279
vn -0.032723 6.068214 -0.056678
v -0.500000 0.250000 -0.866026
vn 1.499711 5.309921 2.597562
v -0.437500 0.216506 -0.757772
vn 2.640137 3.087148 4.572830
v -0.391747 0.125000 -0.678525
vn 3.061134 -0.000001 5.302009
v -0.375000 0.000000 -0.649519
vn 2.640139 -3.087146 4.572831
v -0.391747 -0.125000 -0.678525
vn 1.499714 -5.309922 2.597560
v -0.437500 -0.216506 -0.757772
vn -0.032721 -6.068214 -0.056677
v -0.500000 -0.250000 -0.866026
vn -1.532346 -5.196406 -2.654109
v -0.562500 -0.216506 -0.974279
vn -2.607410 -2.973943 -4.516171
v -0.608253 -0.125000 -1.053525
vn -3.647502 -0.000004 -4.753518
v -0.760952 0.000000 -0.991692
vn -3.174573 2.973949 -4.137197
v -0.740562 0.125000 -0.965119
vn -1.865668 5.196417 -2.431381
v -0.684857 0.216506 -0.892522
vn -0.039829 6.068215 -0.051909
v -0.608761 0.250000 -0.793353
vn 1.825928 5.309919 2.379596
v -0.532666 0.216506 -0.694184
vn 3.214420 3.087153 4.189109
v -0.476961 0.125000 -0.621587
vn 3.726986 -0.000000 4.857100
v -0.456571 0.000000 -0.595015
vn 3.214418 -3.087153 4.189110
v -0.476961 -0.125000 -0.621587
vn 1.825925 -5.309919 2.379600
v -0.532666 -0.216506 -0.694184
vn -0.039833 -6.068214 -0.051908
v -0.608761 -0.250000 -0.793353
vn -1.865667 -5.196421 -2.431376
v -0.684857 -0.216506 -0.892522
vn -3.174580 -2.973942 -4.137197
v -0.740562 -0.125000 -0.965119
vn -4.236767 -0.000000 -4.236763
v -0.883884 0.000000 -0.883883
vn -3.687431 2.973932 -3.687432
v -0.860200 0.125000 -0.860200
vn -2.167053 5.196425 -2.167065
v -0.795495 0.216506 -0.795495
vn -0.046280 6.068213 -0.046276
v -0.707107 0.250000 -0.707107
vn 2.120901 5.309926 2.120903
v -0.618719 0.216506 -0.618718
vn 3.733705 3.087153 3.733703
v -0.554014 0.125000 -0.554013
vn 4.329077 0.000001 4.329079
v -0.530330 0.000000 -0.530330
vn 3.733707 -3.087154 3.733700
v -0.554014 -0.125000 -0.554013
vn 2.120905 -5.309927 2.120899
v -0.618719 -0.216506 -0.618718
vn -0.046275 -6.068214 -0.046280
v -0.707107 -0.250000 -0.707107
vn -2.167059 -5.196423 -2.167064
v -0.795495 -0.216506 -0.795495
vn -3.687428 -2.973933 -3.687433
v -0.860200 -0.125000 -0.860200
vn -4.753519 0.000003 -3.647501
v -0.991692 0.000000 -0.760952
vn -4.137205 2.973936 -3.174582
v -0.965119 0.125000 -0.740562
vn -2.431383 5.196408 -1.865666
v -0.892523 0.216506 -0.684857
vn -0.051906 6.068214 -0.039832
v -0.793353 0.250000 -0.608761
vn 2.379601 5.309918 1.825924
v -0.694184 0.216506 -0.532666
vn 4.189111 3.087153 3.214416
v -0.621587 0.125000 -0.476961
vn 4.857100 0.000001 3.726985
v -0.595015 0.000000 -0.456571
vn 4.189110 -3.087153 3.214418
v -0.621587 -0.125000 -0.476961
vn 2.379598 -5.309919 1.825927
v -0.694184 -0.216506 -0.532666
vn -0.051907 -6.068215 -0.039828
v -0.793353 -0.250000 -0.608761
vn -2.431385 -5.196405 -1.865672
v -0.892523 -0.216506 -0.684857
vn -4.137201 -2.973943 -3.174581
v -0.965119 -0.125000 -0.740562
vn -5.188951 -0.000005 -2.995830
v -1.082532 0.000000 -0.625000
vn -4.516170 2.973943 -2.607410
v -1.053525 0.125000 -0.608253
vn -2.654109 5.196408 -1.532339
v -0.974279 0.216506 -0.562500
vn -0.056667 6.068215 -0.032716
v -0.866025 0.250000 -0.500000
vn 2.597569 5.309921 1.499707
v -0.757772 0.216506 -0.437500
vn 4.572831 3.087146 2.640138
v -0.678525 0.125000 -0.391747
vn 5.302009 0.000001 3.061134
v -0.649519 0.000000 -0.375000
vn 4.572834 -3.087146 2.640135
v -0.678525 -0.125000 -0.391747
vn 2.597569 -5.309923 1.499702
v -0.757772 -0.216506 -0.437500
vn -0.056668 -6.068214 -0.032717
v -0.866025 -0.250000 -0.500000
vn -2.654103 -5.196412 -1.532340
v -0.974279 -0.216506 -0.562500
vn -4.516175 -2.973935 -2.607411
v -1.053525 -0.125000 -0.608253
vn -5.535605 -0.000005 -2.292918
v -1.154849 0.000000 -0.478354
vn -4.817862 2.973934 -1.995631
v -1.123905 0.125000 -0.465537
vn -2.831398 5.196423 -1.172808
v -1.039364 0.216506 -0.430519
vn -0.060451 6.068214 -0.025039
v -0.923879 0.250000 -0.382683
vn 2.771105 5.309911 1.147830
v -0.808394 0.216506 -0.334848
vn 4.878325 3.087150 2.020671
v -0.723854 0.125000 -0.299830
vn 5.656220 -0.000006 2.342877
v -0.692910 0.000000 -0.287013
vn 4.878324 -3.087142 2.020685
v -0.723854 -0.125000 -0.299830
vn 2.771101 -5.309912 1.147835
v -0.808394 -0.216506 -0.334848
vn -0.060451 -6.068214 -0.025040
v -0.923879 -0.250000 -0.382683
vn -2.831398 -5.196425 -1.172802
v -1.039364 -0.216506 -0.430519
vn -4.817865 -2.973927 -1.995631
v -1.123905 -0.125000 -0.465537
vn -5.787529 0.000000 -1.550772
v -1.207407 0.000000 -0.323524
vn -5.037129 2.973921 -1.349701
v -1.175055 0.125000 -0.314855
vn -2.960259 5.196417 -0.793207
v -1.086667 0.216506 -0.291171
vn -0.063211 6.068214 -0.016938
v -0.965926 0.250000 -0.258819
vn 2.897209 5.309921 0.776313
v -0.845185 0.216506 -0.226467
vn 5.100335 3.087159 1.366640
v -0.756797 0.125000 -0.202783
vn 5.913620 -0.000001 1.584547
v -0.724444 0.000000 -0.194114
vn 5.100338 -3.087159 1.366626
v -0.756797 -0.125000 -0.202783
vn 2.897211 -5.309919 0.776310
v -0.845185 -0.216506 -0.226467
vn -0.063210 -6.068214 -0.016938
v -0.965926 -0.250000 -0.258819
vn -2.960261 -5.196416 -0.793208
v -1.086667 -0.216506 -0.291171
vn -5.037127 -2.973923 -1.349703
v -1.175055 -0.125000 -0.314855
vn -5.940430 0.000003 -0.782074
v -1.239306 0.000000 -0.163158
vn -5.170212 2.973922 -0.680664
v -1.206099 0.125000 -0.158786
vn -3.038473 5.196413 -0.400019
v -1.115376 0.216506 -0.146842
vn -0.064877 6.068214 -0.008541
v -0.991445 0.250000 -0.130526
vn 2.973756 5.309916 0.391504
v -0.867514 0.216506 -0.114211
vn 5.235087 3.087150 0.689213
v -0.776791 0.125000 -0.102267
vn 6.069865 0.000002 0.799126
v -0.743584 0.000000 -0.097895
vn 5.235085 -3.087152 0.689222
v -0.776791 -0.125000 -0.102267
vn 2.973757 -5.309916 0.391504
v -0.867514 -0.216506 -0.114211
vn -0.064878 -6.068214 -0.008541
v -0.991445 -0.250000 -0.130526
vn -3.038473 -5.196412 -0.400020
v -1.115376 -0.216506 -0.146842
vn -5.170210 -2.973926 -0.680667
v -1.206099 -0.125000 -0.158786
vn -5.991685 0.000000 0.000000
v -1.250000 0.000000 -0.000000
vn -5.214824 2.973936 -0.000003
v -1.216506 0.125000 -0.000000
vn -3.064690 5.196418 -0.000000
v -1.125000 0.216506 -0.000000
vn -0.065437 6.068214 0.000000
v -1.000000 0.250000 -0.000000
vn 2.999416 5.309919 -0.000000
v -0.875000 0.216506 -0.000000
vn 5.280259 3.087155 0.000003
v -0.783494 0.125000 -0.000000
vn 6.122235 -0.000000 -0.000000
v -0.750000 0.000000 -0.000000
vn 5.280260 -3.087155 -0.000003
v -0.783494 -0.125000 -0.000000
vn 2.999416 -5.309919 0.000000
v -0.875000 -0.216506 -0.000000
vn -0.065437 -6.068214 -0.000000
v -1.000000 -0.250000 -0.000000
vn -3.064690 -5.196419 0.000000
v -1.125000 -0.216506 -0.000000
vn -5.214824 -2.973935 0.000003
v -1.216506 -0.125000 -0.000000
vn -5.940430 -0.000003 0.782074
v -1.239306 0.000000 0.163158
vn -5.170210 2.973926 0.680667
v -1.206099 0.125000 0.158786
vn -3.038473 5.196412 0.400020
v -1.115376 0.216506 0.146842
vn -0.064878 6.068214 0.008541
v -0.991445 0.250000 0.130526
vn 2.973757 5.309916 -0.391504
v -0.867514 0.216506 0.114211
vn 5.235086 3.087152 -0.689222
v -0.776791 0.125000 0.102267
vn 6.069865 -0.000002 -0.799126
v -0.743584 0.000000 0.097895
vn 5.235087 -3.087150 -0.689213
v -0.776791 -0.125000 0.102267
vn 2.973756 -5.309916 -0.391504
v -0.867514 -0.216506 0.114211
vn -0.064877 -6.068215 0.008541
v -0.991445 -0.250000 0.130526
vn -3.038473 -5.196413 0.400019
v -1.115376 -0.216506 0.146842
vn -5.170211 -2.973921 0.680664
v -1.206099 -0.125000 0.158786
vn -5.787536 0.000001 1.550758
v -1.207407 0.000000 0.323524
vn -5.037132 2.973924 1.349692
v -1.175055 0.125000 0.314855
vn -2.960263 5.196418 0.793200
v -1.086667 0.216506 0.291171
vn -0.063207 6.068214 0.016937
v -0.965926 0.250000 0.258819
vn 2.897213 5.309918 -0.776302
v -0.845185 0.216506 0.226467
vn 5.100337 3.087161 -1.366628
v -0.756797 0.125000 0.202783
vn 5.913619 -0.000001 -1.584555
v -0.724444 0.000000 0.194114
vn 5.100333 -3.087162 -1.366635
v -0.756797 -0.125000 0.202783
vn 2.897215 -5.309917 -0.776302
v -0.845185 -0.216506 0.226467
vn -0.063208 -6.068214 0.016937
v -0.965926 -0.250000 0.258819
vn -2.960260 -5.196419 0.793200
v -1.086667 -0.216506 0.291171
vn -5.037134 -2.973924 1.349689
v -1.175055 -0.125000 0.314855
vn -5.535599 0.000000 2.292911
v -1.154850 0.000000 0.478354
vn -4.817867 2.973934 1.995614
v -1.123906 0.125000 0.465536
vn -2.831403 5.196421 1.172801
v -1.039365 0.216506 0.430518
vn -0.060457 6.068213 0.025041
v -0.923880 0.250000 0.382683
vn 2.771096 5.309924 -1.147824
v -0.808395 0.216506 0.334848
vn 4.878321 3.087159 -2.020657
v -0.723854 0.125000 0.299830
vn 5.656219 0.000001 -2.342865
v -0.692910 0.000000 0.287012
vn 4.878323 -3.087158 -2.020658
v -0.723854 -0.125000 0.299830
vn 2.771092 -5.309926 -1.147826
v -0.808395 -0.216506 0.334848
vn -0.060456 -6.068213 0.025042
v -0.923880 -0.250000 0.382683
vn -2.831402 -5.196422 1.172802
v -1.039365 -0.216506 0.430518
vn -4.817866 -2.973933 1.995619
v -1.123906 -0.125000 0.465536
vn -5.188955 0.000003 2.995849
v -1.082532 0.000000 0.625000
vn -4.516162 2.973924 2.607415
v -1.053526 0.125000 0.608253
vn -2.654097 5.196422 1.532340
v -0.974279 0.216506 0.562500
vn -0.056677 6.068214 0.032725
v -0.866026 0.250000 0.500000
vn 2.597568 5.309914 -1.499718
v -0.757772 0.216506 0.437500
vn 4.572835 3.087161 -2.640138
v -0.678526 0.125000 0.391747
vn 5.302009 0.000001 -3.061122
v -0.649519 0.000000 0.375000
vn 4.572837 -3.087161 -2.640137
v -0.678526 -0.125000 0.391747
vn 2.597568 -5.309915 -1.499714
v -0.757772 -0.216506 0.437500
vn -0.056678 -6.068215 0.032719
v -0.866026 -0.250000 0.500000
vn -2.654099 -5.196418 1.532344
v -0.974279 -0.216506 0.562500
vn -4.516160 -2.973930 2.607411
v -1.053526 -0.125000 0.608253
vn -4.753517 0.000001 3.647506
v -0.991692 0.000000 0.760952
vn -4.137198 2.973940 3.174590
v -0.965119 0.125000 0.740562
vn -2.431380 5.196407 1.865674
v -0.892523 0.216506 0.684857
vn -0.051907 6.068215 0.039826
v -0.793353 0.250000 0.608761
vn 2.379596 5.309919 -1.825927
v -0.694184 0.216506 0.532666
vn 4.189101 3.087147 -3.214433
v -0.621587 0.125000 0.476961
vn 4.857096 0.000005 -3.726989
v -0.595015 0.000000 0.456571
vn 4.189098 -3.087155 -3.214427
v -0.621587 -0.125000 0.476961
vn 2.379601 -5.309916 -1.825929
v -0.694184 -0.216506 0.532666
vn -0.051904 -6.068215 0.039832
v -0.793353 -0.250000 0.608761
vn -2.431383 -5.196408 1.865668
v -0.892523 -0.216506 0.684857
vn -4.137197 -2.973941 3.174591
v -0.965119 -0.125000 0.740562
vn -4.236762 -0.000006 4.236767
v -0.883884 0.000000 0.883883
vn -3.687433 2.973937 3.687427
v -0.860200 0.125000 0.860200
vn -2.167060 5.196422 2.167063
v -0.795495 0.216506 0.795495
vn -0.046273 6.068214 0.046278
v -0.707107 0.250000 0.707107
vn 2.120908 5.309926 -2.120895
v -0.618719 0.216506 0.618718
vn 3.733707 3.087154 -3.733700
v -0.554014 0.125000 0.554013
vn 4.329077 -0.000001 -4.329079
v -0.530330 0.000000 0.530330
vn 3.733705 -3.087156 -3.733700
v -0.554014 -0.125000 0.554013
vn 2.120908 -5.309924 -2.120898
v -0.618719 -0.216506 0.618718
vn -0.046278 -6.068213 0.046276
v -0.707107 -0.250000 0.707107
vn -2.167054 -5.196427 2.167062
v -0.795495 -0.216506 0.795495
vn -3.687435 -2.973927 3.687432
v -0.860200 -0.125000 0.860200
vn -3.647516 0.000004 4.753534
v -0.760952 0.000000 0.991691
vn -3.174576 2.973919 4.137197
v -0.740563 0.125000 0.965119
vn -1.865667 5.196425 2.431373
v -0.684857 0.216506 0.892522
vn -0.039838 6.068213 0.051914
v -0.608762 0.250000 0.793353
vn 1.825922 5.309927 -2.379591
v -0.532667 0.216506 0.694184
vn 3.214417 3.087159 -4.189104
v -0.476961 0.125000 0.621587
vn 3.726985 0.000000 -4.857100
v -0.456571 0.000000 0.595015
vn 3.214414 -3.087158 -4.189107
v -0.476961 -0.125000 0.621587
vn 1.825923 -5.309928 -2.379589
v -0.532667 -0.216506 0.694184
vn -0.039835 -6.068213 0.051915
v -0.608762 -0.250000 0.793353
vn -1.865664 -5.196422 2.431379
v -0.684857 -0.216506 0.892522
vn -3.174578 -2.973926 4.137191
v -0.740563 -0.125000 0.965119
vn -2.995836 0.000002 5.188946
v -0.625000 0.000000 1.082532
vn -2.607411 2.973938 4.516173
v -0.608253 0.125000 1.053525
vn -1.532344 5.196408 2.654110
v -0.562500 0.216506 0.974279
vn -0.032721 6.068214 0.056676
v -0.500000 0.250000 0.866026
vn 1.499708 5.309920 -2.597565
v -0.437500 0.216506 0.757772
vn 2.640135 3.087149 -4.572830
v -0.391747 0.125000 0.678525
vn 3.061134 0.000002 -5.302009
v -0.375000 0.000000 0.649519
vn 2.640137 -3.087148 -4.572830
v -0.391747 -0.125000 0.678525
vn 1.499707 -5.309922 -2.597564
v -0.437500 -0.216506 0.757772
vn -0.032722 -6.068214 0.056676
v -0.500000 -0.250000 0.866026
vn -1.532351 -5.196408 2.654105
v -0.562500 -0.216506 0.974279
vn -2.607406 -2.973940 4.516174
v -0.608253 -0.125000 1.053525
vn -2.292918 -0.000005 5.535605
v -0.478354 0.000000 1.154849
vn -1.995628 2.973935 4.817861
v -0.465537 0.125000 1.123905
vn -1.172804 5.196419 2.831408
v -0.430519 0.216506 1.039364
vn -0.025044 6.068213 0.060466
v -0.382684 0.250000 0.923880
vn 1.147826 5.309927 -2.771090
v -0.334848 0.216506 0.808395
vn 2.020673 3.087158 -4.878316
v -0.299830 0.125000 0.723854
vn 2.342876 -0.000006 -5.656220
v -0.287013 0.000000 0.692910
vn 2.020678 -3.087151 -4.878318
v -0.299830 -0.125000 0.723854
vn 1.147825 -5.309927 -2.771090
v -0.334848 -0.216506 0.808395
vn -0.025046 -6.068213 0.060466
v -0.382684 -0.250000 0.923880
vn -1.172801 -5.196424 2.831405
v -0.430519 -0.216506 1.039364
vn -1.995631 -2.973927 4.817864
v -0.465537 -0.125000 1.123905
vn -1.550776 0.000000 5.787529
v -0.323524 0.000000 1.207407
vn -1.349701 2.973930 5.037122
v -0.314855 0.125000 1.175055
vn -0.793204 5.196425 2.960257
v -0.291172 0.216506 1.086666
vn -0.016938 6.068213 0.063211
v -0.258819 0.250000 0.965926
vn 0.776301 5.309917 -2.897215
v -0.226467 0.216506 0.845185
vn 1.366635 3.087162 -5.100333
v -0.202783 0.125000 0.756797
vn 1.584547 -0.000001 -5.913620
v -0.194114 0.000000 0.724444
vn 1.366626 -3.087159 -5.100338
v -0.202783 -0.125000 0.756797
vn 0.776302 -5.309919 -2.897213
v -0.226467 -0.216506 0.845185
vn -0.016937 -6.068213 0.063210
v -0.258819 -0.250000 0.965926
vn -0.793202 -5.196425 2.960258
v -0.291172 -0.216506 1.086666
vn -1.349701 -2.973929 5.037122
v -0.314855 -0.125000 1.175055
vn -0.782076 0.000003 5.940429
v -0.163159 0.000000 1.239306
vn -0.680669 2.973929 5.170202
v -0.158787 0.125000 1.206099
vn -0.400027 5.196425 3.038464
v -0.146843 0.216506 1.115375
vn -0.008542 6.068213 0.064885
v -0.130527 0.250000 0.991445
vn 0.391504 5.309916 -2.973756
v -0.114211 0.216506 0.867514
vn 0.689213 3.087150 -5.235087
v -0.102267 0.125000 0.776791
vn 0.799126 0.000002 -6.069865
v -0.097895 0.000000 0.743584
vn 0.689222 -3.087152 -5.235085
v -0.102267 -0.125000 0.776791
vn 0.391504 -5.309917 -2.973756
v -0.114211 -0.216506 0.867514
vn -0.008543 -6.068213 0.064884
v -0.130527 -0.250000 0.991445
vn -0.400024 -5.196423 3.038468
v -0.146843 -0.216506 1.115375
vn -0.680667 -2.973935 5.170198
v -0.158787 -0.125000 1.206099
vn 0.000001 0.000000 5.991685
v 0.000000 0.000000 1.250000
vn -0.000002 2.973936 5.214824
v 0.000000 0.125000 1.216506
vn -0.000005 5.196418 3.064689
v 0.000000 0.216506 1.125000
vn -0.000001 6.068213 0.065438
v 0.000000 0.250000 1.000000
vn -0.000001 5.309919 -2.999416
v 0.000000 0.216506 0.875000
vn 0.000002 3.087155 -5.280260
v 0.000000 0.125000 0.783494
vn -0.000000 0.000000 -6.122236
v 0.000000 0.000000 0.750000
vn -0.000005 -3.087155 -5.280260
v 0.000000 -0.125000 0.783494
vn -0.000001 -5.309919 -2.999415
v 0.000000 -0.216506 0.875000
vn -0.000000 -6.068214 0.065437
v 0.000000 -0.250000 1.000000
vn -0.000008 -5.196415 3.064692
v 0.000000 -0.216506 1.125000
vn 0.000001 -2.973938 5.214821
v 0.000000 -0.125000 1.216506
vn 0.782077 -0.000004 5.940429
v 0.163158 0.000000 1.239306
vn 0.680670 2.973924 5.170210
v 0.158786 0.125000 1.206099
vn 0.400020 5.196412 3.038473
v 0.146842 0.216506 1.115376
vn 0.008541 6.068215 0.064879
v 0.130526 0.250000 0.991445
vn -0.391504 5.309915 -2.973757
v 0.114210 0.216506 0.867514
vn -0.689213 3.087143 -5.235089
v 0.102266 0.125000 0.776791
vn -0.799102 0.000004 -6.069867
v 0.097895 0.000000 0.743584
vn -0.689210 -3.087146 -5.235089
v 0.102266 -0.125000 0.776791
vn -0.391505 -5.309916 -2.973756
v 0.114210 -0.216506 0.867514
vn 0.008541 -6.068215 0.064878
v 0.130526 -0.250000 0.991445
vn 0.400019 -5.196413 3.038474
v 0.146842 -0.216506 1.115376
vn 0.680667 -2.973921 5.170211
v 0.158786 -0.125000 1.206099
vn 1.550766 0.000001 5.787533
v 0.323523 0.000000 1.207407
vn 1.349702 2.973922 5.037131
v 0.314854 0.125000 1.175055
vn 0.793210 5.196413 2.960264
v 0.291171 0.216506 1.086667
vn 0.016938 6.068214 0.063211
v 0.258819 0.250000 0.965926
vn -0.776307 5.309916 -2.897214
v 0.226466 0.216506 0.845185
vn -1.366631 3.087142 -5.100344
v 0.202783 0.125000 0.756797
vn -1.584548 0.000000 -5.913634
v 0.194114 0.000000 0.724445
vn -1.366632 -3.087142 -5.100345
v 0.202783 -0.125000 0.756797
vn -0.776307 -5.309917 -2.897213
v 0.226466 -0.216506 0.845185
vn 0.016938 -6.068214 0.063212
v 0.258819 -0.250000 0.965926
vn 0.793207 -5.196415 2.960262
v 0.291171 -0.216506 1.086667
vn 1.349697 -2.973922 5.037135
v 0.314854 -0.125000 1.175055
vn 2.292913 0.000005 5.535598
v 0.478355 0.000000 1.154849
vn 1.995623 2.973933 4.817865
v 0.465537 0.125000 1.123905
vn 1.172802 5.196424 2.831401
v 0.430519 0.216506 1.039364
vn 0.025043 6.068213 0.060457
v 0.382684 0.250000 0.923879
vn -1.147830 5.309914 -2.771100
v 0.334848 0.216506 0.808394
vn -2.020684 3.087141 -4.878325
v 0.299830 0.125000 0.723854
vn -2.342898 -0.000000 -5.656209
v 0.287013 0.000000 0.692910
vn -2.020678 -3.087143 -4.878325
v 0.299830 -0.125000 0.723854
vn -1.147828 -5.309912 -2.771105
v 0.334848 -0.216506 0.808394
vn 0.025041 -6.068214 0.060457
v 0.382684 -0.250000 0.923879
vn 1.172808 -5.196423 2.831400
v 0.430519 -0.216506 1.039364
vn 1.995628 -2.973938 4.817862
v 0.465537 -0.125000 1.123905
vn 2.995832 -0.000001 5.188952
v 0.625000 0.000000 1.082532
vn 2.607404 2.973943 4.516176
v 0.608253 0.125000 1.053525
vn 1.532345 5.196410 2.654104
v 0.562500 0.216506 0.974279
vn 0.032713 6.068215 0.056667
v 0.500000 0.250000 0.866025
vn -1.499703 5.309923 -2.597569
v 0.437500 0.216506 0.757772
vn -2.640135 3.087145 -4.572834
v 0.391747 0.125000 0.678525
vn -3.061134 -0.000001 -5.302009
v 0.375000 0.000000 0.649519
vn -2.640139 -3.087146 -4.572831
v 0.391747 -0.125000 0.678525
vn -1.499706 -5.309921 -2.597569
v 0.437500 -0.216506 0.757772
vn 0.032718 -6.068215 0.056664
v 0.500000 -0.250000 0.866025
vn 1.532338 -5.196410 2.654106
v 0.562500 -0.216506 0.974279
vn 2.607404 -2.973941 4.516177
v 0.608253 -0.125000 1.053525
vn 3.647509 -0.000001 4.753522
v 0.760952 0.000000 0.991692
vn 3.174576 2.973930 4.137190
v 0.740562 0.125000 0.965120
vn 1.865656 5.196424 2.431381
v 0.684856 0.216506 0.892523
vn 0.039842 6.068214 0.051918
v 0.608761 0.250000 0.793354
vn -1.825924 5.309920 -2.379596
v 0.532666 0.216506 0.694184
vn -3.214418 3.087153 -4.189110
v 0.476961 0.125000 0.621587
vn -3.726985 -0.000001 -4.857100
v 0.456571 0.000000 0.595015
vn -3.214416 -3.087153 -4.189111
v 0.476961 -0.125000 0.621587
vn -1.825925 -5.309919 -2.379597
v 0.532666 -0.216506 0.694184
vn 0.039838 -6.068213 0.051922
v 0.608761 -0.250000 0.793354
vn 1.865664 -5.196424 2.431377
v 0.684856 -0.216506 0.892523
vn 3.174577 -2.973930 4.137188
v 0.740562 -0.125000 0.965120
vn 4.236762 0.000004 4.236759
v 0.883883 0.000000 0.883884
vn 3.687448 2.973934 3.687438
v 0.860199 0.125000 0.860200
vn 2.167063 5.196410 2.167065
v 0.795495 0.216506 0.795496
vn 0.046264 6.068214 0.046267
v 0.707106 0.250000 0.707107
vn -2.120903 5.309926 -2.120904
v 0.618718 0.216506 0.618719
vn -3.733700 3.087154 -3.733707
v 0.554013 0.125000 0.554014
vn -4.329079 -0.000001 -4.329077
v 0.530330 0.000000 0.530330
vn -3.733703 -3.087153 -3.733704
v 0.554013 -0.125000 0.554014
vn -2.120904 -5.309926 -2.120904
v 0.618718 -0.216506 0.618719
vn 0.046266 -6.068215 0.046264
v 0.707106 -0.250000 0.707107
vn 2.167064 -5.196406 2.167073
v 0.795495 -0.216506 0.795496
vn 3.687443 -2.973942 3.687437
v 0.860199 -0.125000 0.860200
vn 4.753514 0.000000 3.647505
v 0.991692 0.000000 0.760952
vn 4.137197 2.973937 3.174587
v 0.965119 0.125000 0.740562
vn 2.431386 5.196406 1.865667
v 0.892523 0.216506 0.684857
vn 0.051908 6.068215 0.039831
v 0.793353 0.250000 0.608761
vn -2.379600 5.309918 -1.825926
v 0.694184 0.216506 0.532666
vn -4.189109 3.087153 -3.214417
v 0.621587 0.125000 0.476961
vn -4.857099 0.000000 -3.726985
v 0.595015 0.000000 0.456571
vn -4.189109 -3.087152 -3.214420
v 0.621587 -0.125000 0.476961
vn -2.379597 -5.309919 -1.825928
v 0.694184 -0.216506 0.532666
vn 0.051908 -6.068215 0.039830
v 0.793353 -0.250000 0.608761
vn 2.431385 -5.196408 1.865667
v 0.892523 -0.216506 0.684857
vn 4.137198 -2.973936 3.174587
v 0.965119 -0.125000 0.740562
vn 5.188949 -0.000003 2.995835
v 1.082532 0.000000 0.625000
vn 4.516170 2.973943 2.607410
v 1.053525 0.125000 0.608253
vn 2.654109 5.196408 1.532340
v 0.974279 0.216506 0.562500
vn 0.056666 6.068215 0.032716
v 0.866025 0.250000 0.500000
vn -2.597569 5.309921 -1.499707
v 0.757772 0.216506 0.437500
vn -4.572832 3.087152 -2.640133
v 0.678525 0.125000 0.391747
vn -5.302022 -0.000005 -3.061116
v 0.649519 0.000000 0.375000
vn -4.572834 -3.087146 -2.640135
v 0.678525 -0.125000 0.391747
vn -2.597568 -5.309923 -1.499703
v 0.757772 -0.216506 0.437500
vn 0.056668 -6.068214 0.032716
v 0.866025 -0.250000 0.500000
vn 2.654103 -5.196412 1.532340
v 0.974279 -0.216506 0.562500
vn 4.516173 -2.973937 2.607413
v 1.053525 -0.125000 0.608253
vn 5.535598 -0.000006 2.292914
v 1.154849 0.000000 0.478355
vn 4.817860 2.973940 1.995631
v 1.123905 0.125000 0.465537
vn 2.831400 5.196423 1.172808
v 1.039364 0.216506 0.430519
vn 0.060458 6.068214 0.025041
v 0.923879 0.250000 0.382684
vn -2.771105 5.309912 -1.147828
v 0.808394 0.216506 0.334848
vn -4.878320 3.087164 -2.020675
v 0.723854 0.125000 0.299830
vn -5.656208 -0.000006 -2.342874
v 0.692909 0.000000 0.287013
vn -4.878324 -3.087156 -2.020677
v 0.723854 -0.125000 0.299830
vn -2.771100 -5.309914 -1.147830
v 0.808394 -0.216506 0.334848
vn 0.060457 -6.068213 0.025043
v 0.923879 -0.250000 0.382684
vn 2.831400 -5.196424 1.172803
v 1.039364 -0.216506 0.430519
vn 4.817865 -2.973932 1.995627
v 1.123905 -0.125000 0.465537
vn 5.787536 -0.000002 1.550766
v 1.207407 0.000000 0.323523
vn 5.037130 2.973918 1.349699
v 1.175055 0.125000 0.314855
vn 2.960259 5.196417 0.793207
v 1.086667 0.216506 0.291171
vn 0.063212 6.068214 0.016938
v 0.965926 0.250000 0.258819
vn -2.897213 5.309917 -0.776308
v 0.845185 0.216506 0.226466
vn -5.100339 3.087157 -1.366636
v 0.756797 0.125000 0.202783
vn -5.913616 0.000007 -1.584570
v 0.724444 0.000000 0.194114
vn -5.100338 -3.087164 -1.366629
v 0.756797 -0.125000 0.202783
vn -2.897213 -5.309916 -0.776307
v 0.845185 -0.216506 0.226466
vn 0.063211 -6.068214 0.016938
v 0.965926 -0.250000 0.258819
vn 2.960262 -5.196416 0.793207
v 1.086667 -0.216506 0.291171
vn 5.037128 -2.973917 1.349705
v 1.175055 -0.125000 0.314855
vn 5.940429 0.000004 0.782076
v 1.239306 0.000000 0.163158
vn 5.170211 2.973921 0.680665
v 1.206099 0.125000 0.158786
vn 3.038473 5.196413 0.400019
v 1.115376 0.216506 0.146842
vn 0.064878 6.068215 0.008541
v 0.991445 0.250000 0.130526
vn -2.973756 5.309916 -0.391505
v 0.867514 0.216506 0.114210
vn -5.235089 3.087146 -0.689210
v 0.776791 0.125000 0.102266
vn -6.069865 0.000003 -0.799127
v 0.743584 0.000000 0.097895
vn -5.235085 -3.087149 -0.689219
v 0.776791 -0.125000 0.102266
vn -2.973757 -5.309916 -0.391504
v 0.867514 -0.216506 0.114210
vn 0.064879 -6.068215 0.008541
v 0.991445 -0.250000 0.130526
vn 3.038473 -5.196412 0.400020
v 1.115376 -0.216506 0.146842
vn 5.170210 -2.973926 0.680667
v 1.206099 -0.125000 0.158786
# 576 vertices, 0 vertices normals
f 1 13 14
f 1 14 2
f 2 14 15
f 2 15 3
f 3 15 16
f 3 16 4
f 4 16 17
f 4 17 5
f 5 17 18
f 5 18 6
f 6 18 19
f 6 19 7
f 7 19 20
f 7 20 8
f 8 20 21
f 8 21 9
f 9 21 22
f 9 22 10
f 10 22 23
f 10 23 11
f 11 23 24
f 11 24 12
f 1 12 24
f 1 24 13
f 13 25 26
f 13 26 14
f 14 26 27
f 14 27 15
f 15 27 28
f 15 28 16
f 16 28 29
f 16 29 17
f 17 29 30
f 17 30 18
f 18 30 31
f 18 31 19
f 19 31 32
f 19 32 20
f 20 32 33
f 20 33 21
f 21 33 34
f 21 34 22
f 22 34 35
f 22 35 23
f 23 35 36
f 23 36 24
f 24 36 25
f 24 25 13
f 25 37 38
f 25 38 26
f 26 38 39
f 26 39 27
f 27 39 40
f 27 40 28
f 28 40 41
f 28 41 29
f 29 41 42
f 29 42 30
f 30 42 43
f 30 43 31
f 31 43 44
f 31 44 32
f 32 44 45
f 32 45 33
f 33 45 46
f 33 46 34
f 34 46 47
f 34 47 35
f 35 47 48
f 35 48 36
f 36 48 37
f 36 37 25
f 37 49 50
f 37 50 38
f 38 50 51
f 38 51 39
f 39 51 52
f 39 52 40
f 40 52 53
f 40 53 41
f 41 53 54
f 41 54 42
f 42 54 55
f 42 55 43
f 43 55 56
f 43 56 44
f 44 56 57
f 44 57 45
f 45 57 58
f 45 58 46
f 46 58 59
f 46 59 47
f 47 59 60
f 47 60 48
f 48 60 49
f 48 49 37
f 49 61 62
f 49 62 50
f 50 62 63
f 50 63 51
f 51 63 64
f 51 64 52
f 52 64 65
f 52 65 53
f 53 65 66
f 53 66 54
f 54 66 67
f 54 67 55
f 55 67 68
f 55 68 56
f 56 68 69
f 56 69 57
f 57 69 70
f 57 70 58
f 58 70 71
f 58 71 59
f 59 71 72
f 59 72 60
f 60 72 61
f 60 61 49
f 61 73 74
f 61 74 62
f 62 74 75
f 62 75 63
f 63 75 76
f 63 76 64
f 64 76 77
f 64 77 65
f 65 77 78
f 65 78 66
f 66 78 79
f 66 79 67
f 67 79 80
f 67 80 68
f 68 80 81
f 68 81 69
f 69 81 82
f 69 82 70
f 70 82 83
f 70 83 71
f 71 83 84
f 71 84 72
f 72 84 73
f 72 73 61
f 73 85 86
f 73 86 74
f 74 86 87
f 74 87 75
f 75 87 88
f 75 88 76
f 76 88 89
f 76 89 77
f 77 89 90
f 77 90 78
f 78 90 91
f 78 91 79
f 79 91 92
f 79 92 80
f 80 92 93
f 80 93 81
f 81 93 94
f 81 94 82
f 82 94 95
f 82 95 83
f 83 95 96
f 83 96 84
f 84 96 85
f 84 85 73
f 85 97 98
f 85 98 86
f 86 98 99
f 86 99 87
f 87 99 100
f 87 100 88
f 88 100 101
f 88 101 89
f 89 101 102
f 89 102 90
f 90 102 103
f 90 103 91
f 91 103 104
f 91 104 92
f 92 104 105
f 92 105 93
f 93 105 106
f 93 106 94
f 94 106 107
f 94 107 95
f 95 107 108
f 95 108 96
f 96 108 97
f 96 97 85
f 97 109 110
f 97 110 98
f 98 110 111
f 98 111 99
f 99 111 112
f 99 112 100
f 100 112 113
f 100 113 101
f 101 113 114
f 101 114 102
f 102 114 115
f 102 115 103
f 103 115 116
f 103 116 104
f 104 116 117
f 104 117 105
f 105 117 118
f 105 118 106
f 106 118 119
f 106 119 107
f 107 119 120
f 107 120 108
f 108 120 109
f 108 109 97
f 109 121 122
f 109 122 110
f 110 122 123
f 110 123 111
f 111 123 124
f 111 124 112
f 112 124 125
f 112 125 113
f 113 125 126
f 113 126 114
f 114 126 127
f 114 127 115
f 115 127 128
f 115 128 116
f 116 128 129
f 116 129 117
f 117 129 130
f 117 130 118
f 118 130 131
f 118 131 119
f 119 131 132
f 119 132 120
f 120 132 121
f 120 121 109
f 121 133 134
f 121 134 122
f 122 134 135
f 122 135 123
f 123 135 136
f 123 136 124
f 124 136 137
f 124 137 125
f 125 137 138
f 125 138 126
f 126 138 139
f 126 139 127
f 127 139 140
f 127 140 128
f 128 140 141
f 128 141 129
f 129 141 142
f 129 142 130
f 130 142 143
f 130 143 131
f 131 143 144
f 131 144 132
f 132 144 133
f 132 133 121
f 133 145 146
f 133 146 134
f 134 146 147
f 134 147 135
f 135 147 148
f 135 148 136
f 136 148 149
f 136 149 137
f 137 149 150
f 137 150 138
f 138 150 151
f 138 151 139
f 139 151 152
f 139 152 140
f 140 152 153
f 140 153 141
f 141 153 154
f 141 154 142
f 142 154 155
f 142 155 143
f 143 155 156
f 143 156 144
f 144 156 145
f 144 145 133
f 145 157 158
f 145 158 146
f 146 158 159
f 146 159 147
f 147 159 160
f 147 160 148
f 148 160 161
f 148 161 149
f 149 161 162
f 149 162 150
f 150 162 163
f 150 163 151
f 151 163 164
f 151 164 152
f 152 164 165
f 152 165 153
f 153 165 166
f 153 166 154
f 154 166 167
f 154 167 155
f 155 167 168
f 155 168 156
f 156 168 157
f 156 157 145
f 157 169 170
f 157 170 158
f 158 170 171
f 158 171 159
f 159 171 172
f 159 172 160
f 160 172 173
f 160 173 161
f 161 173 174
f 161 174 162
f 162 174 175
f 162 175 163
f 163 175 176
f 163 176 164
f 164 176 177
f 164 177 165
f 165 177 178
f 165 178 166
f 166 178 179
f 166 179 167
f 167 179 180
f 167 180 168
f 168 180 169
f 168 169 157
f 169 181 182
f 169 182 170
f 170 182 183
f 170 183 171
f 171 183 184
f 171 184 172
f 172 184 185
f 172 185 173
f 173 185 186
f 173 186 174
f 174 186 187
f 174 187 175
f 175 187 188
f 175 188 176
f 176 188 189
f 176 189 177
f 177 189 190
f 177 190 178
f 178 190 191
f 178 191 179
f 179 191 192
f 179 192 180
f 180 192 181
f 180 181 169
f 181 193 194
f 181 194 182
f 182 194 195
f 182 195 183
f 183 195 196
f 183 196 184
f 184 196 197
f 184 197 185
f 185 197 198
f 185 198 186
f 186 198 199
f 186 199 187
f 187 199 200
f 187 200 188
f 188 200 201
f 188 201 189
f 189 201 202
f 189 202 190
f 190 202 203
f 190 203 191
f 191 203 204
f 191 204 192
f 192 204 193
f 192 193 181
f 193 205 206
f 193 206 194
f 194 206 207
f 194 207 195
f 195 207 208
f 195 208 196
f 196 208 209
f 196 209 197
f 197 209 210
f 197 210 198
f 198 210 211
f 198 211 199
f 199 211 212
f 199 212 200
f 200 212 213
f 200 213 201
f 201 213 214
f 201 214 202
f 202 214 215
f 202 215 203
f 203 215 216
f 203 216 204
f 204 216 205
f 204 205 193
f 205 217 218
f 205 218 206
f 206 218 219
f 206 219 207
f 207 219 220
f 207 220 208
f 208 220 221
f 208 221 209
f 209 221 222
f 209 222 210
f 210 222 223
f 210 223 211
f 211 223 224
f 211 224 212
f 212 224 225
f 212 225 213
f 213 225 226
f 213 226 214
f 214 226 227
f 214 227 215
f 215 227 228
f 215 228 216
f 216 228 217
f 216 217 205
f 217 229 230
f 217 230 218
f 218 230 231
f 218 231 219
f 219 231 232
f 219 232 220
f 220 232 233
f 220 233 221
f 221 233 234
f 221 234 222
f 222 234 235
f 222 235 223
f 223 235 236
f 223 236 224
f 224 236 237
f 224 237 225
f 225 237 238
f 225 238 226
f 226 238 239
f 226 239 227
f 227 239 240
f 227 240 228
f 228 240 229
f 228 229 217
f 229 241 242
f 229 242 230
f 230 242 243
f 230 243 231
f 231 243 244
f 231 244 232
f 232 244 245
f 232 245 233
f 233 245 246
f 233 246 234
f 234 246 247
f 234 247 235
f 235 247 248
f 235 248 236
f 236 248 249
f 236 249 237
f 237 249 250
f 237 250 238
f 238 250 251
f 238 251 239
f 239 251 252
f 239 252 240
f 240 252 241
f 240 241 229
f 241 253 254
f 241 254 242
f 242 254 255
f 242 255 243
f 243 255 256
f 243 256 244
f 244 256 257
f 244 257 245
f 245 257 258
f 245 258 246
f 246 258 259
f 246 259 247
f 247 259 260
f 247 260 248
f 248 260 261
f 248 261 249
f 249 261 262
f 249 262 250
f 250 262 263
f 250 263 251
f 251 263 264
f 251 264 252
f 252 264 253
f 252 253 241
f 253 265 266
f 253 266 254
f 254 266 267
f 254 267 255
f 255 267 268
f 255 268 256
f 256 268 269
f 256 269 257
f 257 269 270
f 257 270 258
f 258 270 271
f 258 271 259
f 259 271 272
f 259 272 260
f 260 272 273
f 260 273 261
f 261 273 274
f 261 274 262
f 262 274 275
f 262 275 263
f 263 275 276
f 263 276 264
f 264 276 265
f 264 265 253
f 265 277 278
f 265 278 266
f 266 278 279
f 266 279 267
f 267 279 280
f 267 280 268
f 268 280 281
f 268 281 269
f 269 281 282
f 269 282 270
f 270 282 283
f 270 283 271
f 271 283 284
f 271 284 272
f 272 284 285
f 272 285 273
f 273 285 286
f 273 286 274
f 274 286 287
f 274 287 275
f 275 287 288
f 275 288 276
f 276 288 277
f 276 277 265
f 277 289 290
f 277 290 278
f 278 290 291
f 278 291 279
f 279 291 292
f 279 292 280
f 280 292 293
f 280 293 281
f 281 293 294
f 281 294 282
f 282 294 295
f 282 295 283
f 283 295 296
f 283 296 284
f 284 296 297
f 284 297 285
f 285 297 298
f 285 298 286
f 286 298 299
f 286 299 287
f 287 299 300
f 287 300 288
f 288 300 289
f 288 289 277
f 289 301 302
f 289 302 290
f 290 302 303
f 290 303 291
f 291 303 304
f 291 304 292
f 292 304 305
f 292 305 293
f 293 305 306
f 293 306 294
f 294 306 307
f 294 307 295
f 295 307 308
f 295 308 296
f 296 308 309
f 296 309 297
f 297 309 310
f 297 310 298
f 298 310 311
f 298 311 299
f 299 311 312
f 299 312 300
f 300 312 301
f 300 301 289
f 301 313 314
f 301 314 302
f 302 314 315
f 302 315 303
f 303 315 316
f 303 316 304
f 304 316 317
f 304 317 305
f 305 317 318
f 305 318 306
f 306 318 319
f 306 319 307
f 307 319 320
f 307 320 308
f 308 320 321
f 308 321 309
f 309 321 322
f 309 322 310
f 310 322 323
f 310 323 311
f 311 323 324
f 311 324 312
f 312 324 313
f 312 313 301
f 313 325 326
f 313 326 314
f 314 326 327
f 314 327 315
f 315 327 328
f 315 328 316
f 316 328 329
f 316 329 317
f 317 329 330
f 317 330 318
f 318 330 331
f 318 331 319
f 319 331 332
f 319 332 320
f 320 332 333
f 320 333 321
f 321 333 334
f 321 334 322
f 322 334 335
f 322 335 323
f 323 335 336
f 323 336 324
f 324 336 325
f 324 325 313
f 325 337 338
f 325 338 326
f 326 338 339
f 326 339 327
f 327 339 340
f 327 340 328
f 328 340 341
f 328 341 329
f 329 341 342
f 329 342 330
f 330 342 343
f 330 343 331
f 331 343 344
f 331 344 332
f 332 344 345
f 332 345 333
f 333 345 346
f 333 346 334
f 334 346 347
f 334 347 335
f 335 347 348
f 335 348 336
f 336 348 337
f 336 337 325
f 337 349 350
f 337 350 338
f 338 350 351
f 338 351 339
f 339 351 352
f 339 352 340
f 340 352 353
f 340 353 341
f 341 353 354
f 341 354 342
f 342 354 355
f 342 355 343
f 343 355 356
f 343 356 344
f 344 356 357
f 344 357 345
f 345 357 358
f 345 358 346
f 346 358 359
f 346 359 347
f 347 359 360
f 347 360 348
f 348 360 349
f 348 349 337
f 349 361 362
f 349 362 350
f 350 362 363
f 350 363 351
f 351 363 364
f 351 364 352
f 352 364 365
f 352 365 353
f 353 365 366
f 353 366 354
f 354 366 367
f 354 367 355
f 355 367 368
f 355 368 356
f 356 368 369
f 356 369 357
f 357 369 370
f 357 370 358
f 358 370 371
f 358 371 359
f 359 371 372
f 359 372 360
f 360 372 361
f 360 361 349
f 361 373 374
f 361 374 362
f 362 374 375
f 362 375 363
f 363 375 376
f 363 376 364
f 364 376 377
f 364 377 365
f 365 377 378
f 365 378 366
f 366 378 379
f 366 379 367
f 367 379 380
f 367 380 368
f 368 380 381
f 368 381 369
f 369 381 382
f 369 382 370
f 370 382 383
f 370 383 371
f 371 383 384
f 371 384 372
f 372 384 373
f 372 373 361
f 373 385 386
f 373 386 374
f 374 386 387
f 374 387 375
f 375 387 388
f 375 388 376
f 376 388 389
f 376 389 377
f 377 389 390
f 377 390 378
f 378 390 391
f 378 391 379
f 379 391 392
f 379 392 380
f 380 392 393
f 380 393 381
f 381 393 394
f 381 394 382
f 382 394 395
f 382 395 383
f 383 395 396
f 383 396 384
f 384 396 385
f 384 385 373
f 385 397 398
f 385 398 386
f 386 398 399
f 386 399 387
f 387 399 400
f 387 400 388
f 388 400 401
f 388 401 389
f 389 401 402
f 389 402 390
f 390 402 403
f 390 403 391
f 391 403 404
f 391 404 392
f 392 404 405
f 392 405 393
f 393 405 406
f 393 406 394
f 394 406 407
f 394 407 395
f 395 407 408
f 395 408 396
f 396 408 397
f 396 397 385
f 397 409 410
f 397 410 398
f 398 410 411
f 398 411 399
f 399 411 412
f 399 412 400
f 400 412 413
f 400 413 401
f 401 413 414
f 401 414 402
f 402 414 415
f 402 415 403
f 403 415 416
f 403 416 404
f 404 416 417
f 404 417 405
f 405 417 418
f 405 418 406
f 406 418 419
f 406 419 407
f 407 419 420
f 407 420 408
f 408 420 409
f 408 409 397
f 409 421 422
f 409 422 410
f 410 422 423
f 410 423 411
f 411 423 424
f 411 424 412
f 412 424 425
f 412 425 413
f 413 425 426
f 413 426 414
f 414 426 427
f 414 427 415
f 415 427 428
f 415 428 416
f 416 428 429
f 416 429 417
f 417 429 430
f 417 430 418
f 418 430 431
f 418 431 419
f 419 431 432
f 419 432 420
f 420 432 421
f 420 421 409
f 421 433 434
f 421 434 422
f 422 434 435
f 422 435 423
f 423 435 436
f 423 436 424
f 424 436 437
f 424 437 425
f 425 437 438
f 425 438 426
f 426 438 439
f 426 439 427
f 427 439 440
f 427 440 428
f 428 440 441
f 428 441 429
f 429 441 442
f 429 442 430
f 430 442 443
f 430 443 431
f 431 443 444
f 431 444 432
f 432 444 433
f 432 433 421
f 433 445 446
f 433 446 434
f 434 446 447
f 434 447 435
f 435 447 448
f 435 448 436
f 436 448 449
f 436 449 437
f 437 449 450
f 437 450 438
f 438 450 451
f 438 451 439
f 439 451 452
f 439 452 440
f 440 452 453
f 440 453 441
f 441 453 454
f 441 454 442
f 442 454 455
f 442 455 443
f 443 455 456
f 443 456 444
f 444 456 445
f 444 445 433
f 445 457 458
f 445 458 446
f 446 458 459
f 446 459 447
f 447 459 460
f 447 460 448
f 448 460 461
f 448 461 449
f 449 461 462
f 449 462 450
f 450 462 463
f 450 463 451
f 451 463 464
f 451 464 452
f 452 464 465
f 452 465 453
f 453 465 466
f 453 466 454
f 454 466 467
f 454 467 455
f 455 467 468
f 455 468 456
f 456 468 457
f 456 457 445
f 457 469 470
f 457 470 458
f 458 470 471
f 458 471 459
f 459 471 472
f 459 472 460
f 460 472 473
f 460 473 461
f 461 473 474
f 461 474 462
f 462 474 475
f 462 475 463
f 463 475 476
f 463 476 464
f 464 476 477
f 464 477 465
f 465 477 478
f 465 478 466
f 466 478 479
f 466 479 467
f 467 479 480
f 467 480 468
f 468 480 469
f 468 469 457
f 469 481 482
f 469 482 470
f 470 482 483
f 470 483 471
f 471 483 484
f 471 484 472
f 472 484 485
f 472 485 473
f 473 485 486
f 473 486 474
f 474 486 487
f 474 487 475
f 475 487 488
f 475 488 476
f 476 488 489
f 476 489 477
f 477 489 490
f 477 490 478
f 478 490 491
f 478 491 479
f 479 491 492
f 479 492 480
f 480 492 481
f 480 481 469
f 481 493 494
f 481 494 482
f 482 494 495
f 482 495 483
f 483 495 496
f 483 496 484
f 484 496 497
f 484 497 485
f 485 497 498
f 485 498 486
f 486 498 499
f 486 499 487
f 487 499 500
f 487 500 488
f 488 500 501
f 488 501 489
f 489 501 502
f 489 502 490
f 490 502 503
f 490 503 491
f 491 503 504
f 491 504 492
f 492 504 493
f 492 493 481
f 493 505 506
f 493 506 494
f 494 506 507
f 494 507 495
f 495 507 508
f 495 508 496
f 496 508 509
f 496 509 497
f 497 509 510
f 497 510 498
f 498 510 511
f 498 511 499
f 499 511 512
f 499 512 500
f 500 512 513
f 500 513 501
f 501 513 514
f 501 514 502
f 502 514 515
f 502 515 503
f 503 515 516
f 503 516 504
f 504 516 505
f 504 505 493
f 505 517 518
f 505 518 506
f 506 518 519
f 506 519 507
f 507 519 520
f 507 520 508
f 508 520 521
f 508 521 509
f 509 521 522
f 509 522 510
f 510 522 523
f 510 523 511
f 511 523 524
f 511 524 512
f 512 524 525
f 512 525 513
f 513 525 526
f 513 526 514
f 514 526 527
f 514 527 515
f 515 527 528
f 515 528 516
f 516 528 517
f 516 517 505
f 517 529 530
f 517 530 518
f 518 530 531
f 518 531 519
f 519 531 532
f 519 532 520
f 520 532 533
f 520 533 521
f 521 533 534
f 521 534 522
f 522 534 535
f 522 535 523
f 523 535 536
f 523 536 524
f 524 536 537
f 524 537 525
f 525 537 538
f 525 538 526
f 526 538 539
f 526 539 527
f 527 539 540
f 527 540 528
f 528 540 529
f 528 529 517
f 529 541 542
f 529 542 530
f 530 542 543
f 530 543 531
f 531 543 544
f 531 544 532
f 532 544 545
f 532 545 533
f 533 545 546
f 533 546 534
f 534 546 547
f 534 547 535
f 535 547 548
f 535 548 536
f 536 548 549
f 536 549 537
f 537 549 550
f 537 550 538
f 538 550 551
f 538 551 539
f 539 551 552
f 539 552 540
f 540 552 541
f 540 541 529
f 541 553 554
f 541 554 542
f 542 554 555
f 542 555 543
f 543 555 556
f 543 556 544
f 544 556 557
f 544 557 545
f 545 557 558
f 545 558 546
f 546 558 559
f 546 559 547
f 547 559 560
f 547 560 548
f 548 560 561
f 548 561 549
f 549 561 562
f 549 562 550
f 550 562 563
f 550 563 551
f 551 563 564
f 551 564 552
f 552 564 553
f 552 553 541
f 553 565 566
f 553 566 554
f 554 566 567
f 554 567 555
f 555 567 568
f 555 568 556
f 556 568 569
f 556 569 557
f 557 569 570
f 557 570 558
f 558 570 571
f 558 571 559
f 559 571 572
f 559 572 560
f 560 572 573
f 560 573 561
f 561 573 574
f 561 574 562
f 562 574 575
f 562 575 563
f 563 575 576
f 563 576 564
f 564 576 565
f 564 565 553
f 565 1 2
f 565 2 566
f 566 2 3
f 566 3 567
f 567 3 4
f 567 4 568
f 568 4 5
f 568 5 569
f 569 5 6
f 569 6 570
f 570 6 7
f 570 7 571
f 571 7 8
f 571 8 572
f 572 8 9
f 572 9 573
f 573 9 10
f 573 10 574
f 574 10 11
f 574 11 575
f 575 11 12
f 575 12 576
f 576 12 1
f 576 1 565
# 1152 faces, 0 coords texture

# End of File
